week2 project
…
table(activity_changed$is_weekday)

## 
## weekday weekend 
##   12960    4608

steps_per_interval_changed <- activity_changed %>%
  group_by(interval,is_weekday) %>%
  summarise(steps=mean(steps,na.rm=TRUE))

steps_per_interval_changed

## # A tibble: 576 x 3
## # Groups:   interval [288]
##    interval is_weekday   steps
##       <int> <chr>        <dbl>
##  1        0 weekday    2.25   
##  2        0 weekend    0.215  
##  3        5 weekday    0.445  
##  4        5 weekend    0.0425 
##  5       10 weekday    0.173  
##  6       10 weekend    0.0165 
##  7       15 weekday    0.198  
##  8       15 weekend    0.0189 
##  9       20 weekday    0.0990 
## 10       20 weekend    0.00943
## #  with 566 more rows
…
